…
customer %>% 
  left_join(cards, by = "CustomerId") %>% 
  left_join(transactions, by = "CardId") %>% 
  left_join(menu, by = c("item" = "ItemCode")) %>% 
  group_by(CustomerId) %>% 
  summarize(
    "totalbalance" = sum(Balance, na.rm = T),
    "avg #items per transactions" = mean(count, na.rm = T),
    "avg value per transaction" = mean(Price * count, na.rm = T),
    "total value of transactions" = sum(Price * count, na.rm = T),
    "total_points" = sum((Price * count) %/% 500, na.rm = TRUE)
  )
```

    ## # A tibble: 9,641 × 6
    ##    CustomerId totalbalance `avg #items per transactions` avg value per transac…¹
    ##         <int>        <dbl>                         <dbl>                   <dbl>
    ##  1   15565701         2000                          1                       124 
    ##  2   15565706        27600                          1                       114.
    ##  3   15565714        26600                          1.03                    118.
    ##  4   15565779        79400                          1.07                    138.
    ##  5   15565796         3600                          1                       115 
    ##  6   15565806        52500                          1.03                    126.
    ##  7   15565878        93600                          1.07                    133.
    ##  8   15565879         4200                          1                       131.
    ##  9   15565891        21200                          1.11                    134.
    ## 10   15565996        21600                          1.04                    124.
    ## # ℹ 9,631 more rows
    ## # ℹ abbreviated name: ¹​`avg value per transaction`
    ## # ℹ 2 more variables: `total value of transactions` <dbl>, total_points <dbl>
